100_verilog_designs/design005/tb_good_mux.vcd
$date
    Sep 24, 2025  15:03:14
$end
$version
    TOOL:	xmsim(64)	25.03-s001
$end
$timescale
    1 ps
$end

$scope module tb_good_mux $end
$var reg       1 !    i0 $end
$var reg       1 "    i1 $end
$var reg       1 #    sel $end
$var wire      1 $    y  $end

$scope module uut $end
$var wire      1 %    i0  $end
$var wire      1 &    i1  $end
$var wire      1 '    sel  $end
$var reg       1 (    y $end
$upscope $end

$upscope $end

$enddefinitions $end
$dumpvars
0!
0"
0#
0$
0%
0&
0'
0(
$end
#10000
1!
1%
1(
1$
#20000
0!
0%
0(
0$
#30000
1!
1%
1(
1$
#40000
0!
0%
0(
0$
#50000
1!
1%
1(
1$
#55000
1"
1&
#60000
0!
0%
0(
0$
#70000
1!
1%
1(
1$
#75000
1#
1'
#80000
0!
0%
#90000
1!
1%
#100000
0!
0%
#110000
0"
1!
1%
0&
0(
0$
#120000
0!
0%
#130000
1!
1%
#140000
0!
0%
#150000
0#
1!
1%
0'
1(
1$
#160000
0!
0%
0(
0$
#165000
1"
1&
#170000
1!
1%
1(
1$
#180000
0!
0%
0(
0$
#190000
1!
1%
1(
1$
#200000
0!
0%
0(
0$
#210000
1!
1%
1(
1$
#220000
0"
0!
0%
0&
0(
0$
#225000
1#
1'
#230000
1!
1%
#240000
0!
0%
#250000
1!
1%
#260000
0!
0%
#270000
1!
1%
#275000
1"
1&
1(
1$
#280000
0!
0%
#290000
1!
1%
